{
  "albums": {
    "href": "https://api.spotify.com/v1/search?query=plastic&type=album&offset=0&limit=20",
    "items": [
      {
        "album_type": "album",
        "artists": [
          {
            "external_urls": {
              "spotify": "https://open.spotify.com/artist/3AA28KZvwAUcZuOKwyblJQ"
            },
            "href": "https://api.spotify.com/v1/artists/3AA28KZvwAUcZuOKwyblJQ",
            "id": "3AA28KZvwAUcZuOKwyblJQ",
            "name": "Gorillaz",
            "type": "artist",
            "uri": "spotify:artist:3AA28KZvwAUcZuOKwyblJQ"
          }
        ],
        "available_markets": [
          "AR",
          "AU",
          "AT",
          "BE",
          "BO",
          "BR",
          "BG",
          "CA",
          "CL",
          "CO",
          "CR",
          "CY",
          "CZ",
          "DK",
          "DO",
          "DE",
          "EC",
          "EE",
          "SV",
          "FI",
          "FR",
          "GR",
          "GT",
          "HN",
          "HK",
          "HU",
          "IS",
          "IE",
          "IT",
          "LV",
          "LT",
          "LU",
          "MY",
          "MT",
          "MX",
          "NL",
          "NZ",
          "NI",
          "NO",
          "PA",
          "PY",
          "PE",
          "PH",
          "PL",
          "PT",
          "SG",
          "SK",
          "ES",
          "SE",
          "CH",
          "TW",
          "TR",
          "UY",
          "US",
          "GB",
          "AD",
          "LI",
          "MC",
          "ID",
          "JP",
          "TH",
          "VN",
          "RO",
          "IL",
          "ZA",
          "SA",
          "AE",
          "BH",
          "QA",
          "OM",
          "KW",
          "EG",
          "MA",
          "DZ",
          "TN",
          "LB",
          "JO",
          "PS",
          "IN",
          "BY",
          "KZ",
          "MD",
          "UA",
          "AL",
          "BA",
          "HR",
          "ME",
          "MK",
          "RS",
          "SI",
          "KR",
          "BD",
          "PK",
          "LK",
          "GH",
          "KE",
          "NG",
          "TZ",
          "UG",
          "AG",
          "AM",
          "BS",
          "BB",
          "BZ",
          "BT",
          "BW",
          "BF",
          "CV",
          "CW",
          "DM",
          "FJ",
          "GM",
          "GE",
          "GD",
          "GW",
          "GY",
          "HT",
          "JM",
          "KI",
          "LS",
          "LR",
          "MW",
          "MV",
          "ML",
          "MH",
          "FM",
          "NA",
          "NR",
          "NE",
          "PW",
          "PG",
          "PR",
          "WS",
          "SM",
          "ST",
          "SN",
          "SC",
          "SL",
          "SB",
          "KN",
          "LC",
          "VC",
          "SR",
          "TL",
          "TO",
          "TT",
          "TV",
          "VU",
          "AZ",
          "BN",
          "BI",
          "KH",
          "CM",
          "TD",
          "KM",
          "GQ",
          "SZ",
          "GA",
          "GN",
          "KG",
          "LA",
          "MO",
          "MR",
          "MN",
          "NP",
          "RW",
          "TG",
          "UZ",
          "ZW",
          "BJ",
          "MG",
          "MU",
          "MZ",
          "AO",
          "CI",
          "DJ",
          "ZM",
          "CD",
          "CG",
          "IQ",
          "LY",
          "TJ",
          "VE",
          "ET",
          "XK"
        ],
        "external_urls": {
          "spotify": "https://open.spotify.com/album/2dIGnmEIy1WZIcZCFSj6i8"
        },
        "href": "https://api.spotify.com/v1/albums/2dIGnmEIy1WZIcZCFSj6i8",
        "id": "2dIGnmEIy1WZIcZCFSj6i8",
        "images": [
          {
            "height": 640,
            "url": "https://i.scdn.co/image/ab67616d0000b273661d019f34569f79eae9e985",
            "width": 640
          },
          {
            "height": 300,
            "url": "https://i.scdn.co/image/ab67616d00001e02661d019f34569f79eae9e985",
            "width": 300
          },
          {
            "height": 64,
            "url": "https://i.scdn.co/image/ab67616d00004851661d019f34569f79eae9e985",
            "width": 64
          }
        ],
        "name": "Plastic Beach",
        "release_date": "2010-03-03",
        "release_date_precision": "day",
        "total_tracks": 16,
        "type": "album",
        "uri": "spotify:album:2dIGnmEIy1WZIcZCFSj6i8"
      },
      {
        "album_type": "single",
        "artists": [
          {
            "external_urls": {
              "spotify": "https://open.spotify.com/artist/5FqDKPJK3RSwGTW4rlBJFM"
            },
            "href": "https://api.spotify.com/v1/artists/5FqDKPJK3RSwGTW4rlBJFM",
            "id": "5FqDKPJK3RSwGTW4rlBJFM",
            "name": "GIIN",
            "type": "artist",
            "uri": "spotify:artist:5FqDKPJK3RSwGTW4rlBJFM"
          }
        ],
        "available_markets": [
          "AD",
          "AE",
          "AL",
          "AM",
          "AT",
          "AU",
          "AZ",
          "BA",
          "BD",
          "BE",
          "BG",
          "BH",
          "BI",
          "BN",
          "BT",
          "BW",
          "BY",
          "CH",
          "CY",
          "CZ",
          "DE",
          "DJ",
          "DK",
          "EE",
          "EG",
          "ES",
          "ET",
          "FI",
          "FJ",
          "FM",
          "FR",
          "GE",
          "GR",
          "HK",
          "HR",
          "HU",
          "ID",
          "IL",
          "IN",
          "IQ",
          "IT",
          "JO",
          "JP",
          "KE",
          "KG",
          "KH",
          "KI",
          "KM",
          "KR",
          "KW",
          "KZ",
          "LA",
          "LB",
          "LI",
          "LK",
          "LS",
          "LT",
          "LU",
          "LV",
          "LY",
          "MC",
          "MD",
          "ME",
          "MG",
          "MH",
          "MK",
          "MN",
          "MO",
          "MT",
          "MU",
          "MV",
          "MW",
          "MY",
          "MZ",
          "NA",
          "NL",
          "NO",
          "NP",
          "NR",
          "NZ",
          "OM",
          "PG",
          "PH",
          "PK",
          "PL",
          "PS",
          "PW",
          "QA",
          "RO",
          "RS",
          "RW",
          "SA",
          "SB",
          "SC",
          "SE",
          "SG",
          "SI",
          "SK",
          "SM",
          "SZ",
          "TH",
          "TJ",
          "TL",
          "TO",
          "TR",
          "TV",
          "TW",
          "TZ",
          "UA",
          "UG",
          "UZ",
          "VN",
          "VU",
          "WS",
          "XK",
          "ZA",
          "ZM",
          "ZW",
          "AO",
          "BJ",
          "CD",
          "CG",
          "CM",
          "DZ",
          "GA",
          "GB",
          "GQ",
          "IE",
          "MA",
          "NE",
          "NG",
          "PT",
          "TD",
          "TN",
          "BF",
          "CI",
          "GH",
          "GM",
          "GN",
          "GW",
          "IS",
          "LR",
          "ML",
          "MR",
          "SL",
          "SN",
          "ST",
          "TG",
          "CV",
          "AR",
          "BR",
          "SR",
          "UY",
          "AG",
          "BB",
          "BO",
          "BS",
          "CA",
          "CL",
          "CW",
          "DM",
          "DO",
          "GD",
          "GY",
          "HT",
          "KN",
          "LC",
          "PR",
          "PY",
          "TT",
          "US",
          "VC",
          "VE",
          "CO",
          "EC",
          "JM",
          "PA",
          "PE",
          "BZ",
          "CR",
          "GT",
          "HN",
          "MX",
          "NI",
          "SV"
        ],
        "external_urls": {
          "spotify": "https://open.spotify.com/album/133fvM0w0I7MYBWpea2FnP"
        },
        "href": "https://api.spotify.com/v1/albums/133fvM0w0I7MYBWpea2FnP",
        "id": "133fvM0w0I7MYBWpea2FnP",
        "images": [
          {
            "height": 640,
            "url": "https://i.scdn.co/image/ab67616d0000b273aa6806c944581afa3d5553ed",
            "width": 640
          },
          {
            "height": 300,
            "url": "https://i.scdn.co/image/ab67616d00001e02aa6806c944581afa3d5553ed",
            "width": 300
          },
          {
            "height": 64,
            "url": "https://i.scdn.co/image/ab67616d00004851aa6806c944581afa3d5553ed",
            "width": 64
          }
        ],
        "name": "Cuore di plastica",
        "release_date": "2024-07-05",
        "release_date_precision": "day",
        "total_tracks": 1,
        "type": "album",
        "uri": "spotify:album:133fvM0w0I7MYBWpea2FnP"
      },
      {
        "album_type": "album",
        "artists": [
          {
            "external_urls": {
              "spotify": "https://open.spotify.com/artist/5YGY8feqx7naU7z4HrwZM6"
            },
            "href": "https://api.spotify.com/v1/artists/5YGY8feqx7naU7z4HrwZM6",
            "id": "5YGY8feqx7naU7z4HrwZM6",
            "name": "Miley Cyrus",
            "type": "artist",
            "uri": "spotify:artist:5YGY8feqx7naU7z4HrwZM6"
          }
        ],
        "available_markets": [
          "AR",
          "AU",
          "AT",
          "BE",
          "BO",
          "BR",
          "BG",
          "CA",
          "CL",
          "CO",
          "CR",
          "CY",
          "CZ",
          "DK",
          "DO",
          "DE",
          "EC",
          "EE",
          "SV",
          "FI",
          "FR",
          "GR",
          "GT",
          "HN",
          "HK",
          "HU",
          "IS",
          "IE",
          "IT",
          "LV",
          "LT",
          "LU",
          "MY",
          "MT",
          "MX",
          "NL",
          "NZ",
          "NI",
          "NO",
          "PA",
          "PY",
          "PE",
          "PH",
          "PL",
          "PT",
          "SG",
          "SK",
          "ES",
          "SE",
          "CH",
          "TW",
          "TR",
          "UY",
          "US",
          "GB",
          "AD",
          "LI",
          "MC",
          "ID",
          "JP",
          "TH",
          "VN",
          "RO",
          "IL",
          "ZA",
          "SA",
          "AE",
          "BH",
          "QA",
          "OM",
          "KW",
          "EG",
          "MA",
          "DZ",
          "TN",
          "LB",
          "JO",
          "PS",
          "IN",
          "BY",
          "KZ",
          "MD",
          "UA",
          "AL",
          "BA",
          "HR",
          "ME",
          "MK",
          "RS",
          "SI",
          "BD",
          "PK",
          "LK",
          "GH",
          "KE",
          "NG",
          "TZ",
          "UG",
          "AG",
          "AM",
          "BS",
          "BB",
          "BZ",
          "BT",
          "BW",
          "BF",
          "CV",
          "CW",
          "DM",
          "FJ",
          "GM",
          "GE",
          "GD",
          "GW",
          "GY",
          "HT",
          "JM",
          "KI",
          "LS",
          "LR",
          "MW",
          "MV",
          "ML",
          "MH",
          "FM",
          "NA",
          "NR",
          "NE",
          "PW",
          "PG",
          "PR",
          "WS",
          "SM",
          "ST",
          "SN",
          "SC",
          "SL",
          "SB",
          "KN",
          "LC",
          "VC",
          "SR",
          "TL",
          "TO",
          "TT",
          "TV",
          "VU",
          "AZ",
          "BN",
          "BI",
          "KH",
          "CM",
          "TD",
          "KM",
          "GQ",
          "SZ",
          "GA",
          "GN",
          "KG",
          "LA",
          "MO",
          "MR",
          "MN",
          "NP",
          "RW",
          "TG",
          "UZ",
          "ZW",
          "BJ",
          "MG",
          "MU",
          "MZ",
          "AO",
          "CI",
          "DJ",
          "ZM",
          "CD",
          "CG",
          "IQ",
          "LY",
          "TJ",
          "VE",
          "ET",
          "XK"
        ],
        "external_urls": {
          "spotify": "https://open.spotify.com/album/5BRhg6NSEZOj0BR6Iz56fR"
        },
        "href": "https://api.spotify.com/v1/albums/5BRhg6NSEZOj0BR6Iz56fR",
        "id": "5BRhg6NSEZOj0BR6Iz56fR",
        "images": [
          {
            "height": 640,
            "url": "https://i.scdn.co/image/ab67616d0000b2738cffb7c6c40759eaf8a5a142",
            "width": 640
          },
          {
            "height": 300,
            "url": "https://i.scdn.co/image/ab67616d00001e028cffb7c6c40759eaf8a5a142",
            "width": 300
          },
          {
            "height": 64,
            "url": "https://i.scdn.co/image/ab67616d000048518cffb7c6c40759eaf8a5a142",
            "width": 64
          }
        ],
        "name": "Plastic Hearts",
        "release_date": "2020-11-27",
        "release_date_precision": "day",
        "total_tracks": 15,
        "type": "album",
        "uri": "spotify:album:5BRhg6NSEZOj0BR6Iz56fR"
      },
      {
        "album_type": "single",
        "artists": [
          {
            "external_urls": {
              "spotify": "https://open.spotify.com/artist/19Ii0dXgTYPulG9y9NaxTP"
            },
            "href": "https://api.spotify.com/v1/artists/19Ii0dXgTYPulG9y9NaxTP",
            "id": "19Ii0dXgTYPulG9y9NaxTP",
            "name": "Nyno",
            "type": "artist",
            "uri": "spotify:artist:19Ii0dXgTYPulG9y9NaxTP"
          }
        ],
        "available_markets": [
          "AD",
          "AE",
          "AL",
          "AM",
          "AT",
          "AU",
          "AZ",
          "BA",
          "BD",
          "BE",
          "BG",
          "BH",
          "BI",
          "BN",
          "BT",
          "BW",
          "BY",
          "CH",
          "CY",
          "CZ",
          "DE",
          "DJ",
          "DK",
          "EE",
          "EG",
          "ES",
          "ET",
          "FI",
          "FJ",
          "FM",
          "FR",
          "GE",
          "GR",
          "HK",
          "HR",
          "HU",
          "ID",
          "IL",
          "IN",
          "IQ",
          "IT",
          "JO",
          "JP",
          "KE",
          "KG",
          "KH",
          "KI",
          "KM",
          "KR",
          "KW",
          "KZ",
          "LA",
          "LB",
          "LI",
          "LK",
          "LS",
          "LT",
          "LU",
          "LV",
          "LY",
          "MC",
          "MD",
          "ME",
          "MG",
          "MH",
          "MK",
          "MN",
          "MO",
          "MT",
          "MU",
          "MV",
          "MW",
          "MY",
          "MZ",
          "NA",
          "NL",
          "NO",
          "NP",
          "NR",
          "NZ",
          "OM",
          "PG",
          "PH",
          "PK",
          "PL",
          "PS",
          "PW",
          "QA",
          "RO",
          "RS",
          "RW",
          "SA",
          "SB",
          "SC",
          "SE",
          "SG",
          "SI",
          "SK",
          "SM",
          "SZ",
          "TH",
          "TJ",
          "TL",
          "TO",
          "TR",
          "TV",
          "TW",
          "TZ",
          "UA",
          "UG",
          "UZ",
          "VN",
          "VU",
          "WS",
          "XK",
          "ZA",
          "ZM",
          "ZW",
          "AO",
          "BJ",
          "CD",
          "CG",
          "CM",
          "DZ",
          "GA",
          "GB",
          "GQ",
          "IE",
          "MA",
          "NE",
          "NG",
          "PT",
          "TD",
          "TN",
          "BF",
          "CI",
          "GH",
          "GM",
          "GN",
          "GW",
          "IS",
          "LR",
          "ML",
          "MR",
          "SL",
          "SN",
          "ST",
          "TG",
          "CV",
          "AR",
          "BR",
          "SR",
          "UY",
          "AG",
          "BB",
          "BO",
          "BS",
          "CA",
          "CL",
          "CW",
          "DM",
          "DO",
          "GD",
          "GY",
          "HT",
          "KN",
          "LC",
          "PR",
          "PY",
          "TT",
          "US",
          "VC",
          "VE",
          "CO",
          "EC",
          "JM",
          "PA",
          "PE",
          "BZ",
          "CR",
          "GT",
          "HN",
          "MX",
          "NI",
          "SV"
        ],
        "external_urls": {
          "spotify": "https://open.spotify.com/album/6rcZbGfaeE6Dc0kqpjDwFl"
        },
        "href": "https://api.spotify.com/v1/albums/6rcZbGfaeE6Dc0kqpjDwFl",
        "id": "6rcZbGfaeE6Dc0kqpjDwFl",
        "images": [
          {
            "height": 640,
            "url": "https://i.scdn.co/image/ab67616d0000b273bec3406b6ebcb320782be430",
            "width": 640
          },
          {
            "height": 300,
            "url": "https://i.scdn.co/image/ab67616d00001e02bec3406b6ebcb320782be430",
            "width": 300
          },
          {
            "height": 64,
            "url": "https://i.scdn.co/image/ab67616d00004851bec3406b6ebcb320782be430",
            "width": 64
          }
        ],
        "name": "Musica di Plastica",
        "release_date": "2024-07-05",
        "release_date_precision": "day",
        "total_tracks": 1,
        "type": "album",
        "uri": "spotify:album:6rcZbGfaeE6Dc0kqpjDwFl"
      },
      {
        "album_type": "album",
        "artists": [
          {
            "external_urls": {
              "spotify": "https://open.spotify.com/artist/4x1nvY2FN8jxqAFA0DA02H"
            },
            "href": "https://api.spotify.com/v1/artists/4x1nvY2FN8jxqAFA0DA02H",
            "id": "4x1nvY2FN8jxqAFA0DA02H",
            "name": "John Lennon",
            "type": "artist",
            "uri": "spotify:artist:4x1nvY2FN8jxqAFA0DA02H"
          }
        ],
        "available_markets": [
          "AR",
          "AU",
          "AT",
          "BE",
          "BO",
          "BR",
          "BG",
          "CA",
          "CL",
          "CO",
          "CR",
          "CY",
          "CZ",
          "DK",
          "DO",
          "DE",
          "EC",
          "EE",
          "SV",
          "FI",
          "FR",
          "GR",
          "GT",
          "HN",
          "HK",
          "HU",
          "IS",
          "IE",
          "IT",
          "LV",
          "LT",
          "LU",
          "MY",
          "MT",
          "MX",
          "NL",
          "NZ",
          "NI",
          "NO",
          "PA",
          "PY",
          "PE",
          "PH",
          "PL",
          "PT",
          "SG",
          "SK",
          "ES",
          "SE",
          "CH",
          "TW",
          "TR",
          "UY",
          "US",
          "GB",
          "AD",
          "LI",
          "MC",
          "ID",
          "JP",
          "TH",
          "VN",
          "RO",
          "IL",
          "ZA",
          "SA",
          "AE",
          "BH",
          "QA",
          "OM",
          "KW",
          "EG",
          "MA",
          "DZ",
          "TN",
          "LB",
          "JO",
          "PS",
          "IN",
          "BY",
          "KZ",
          "MD",
          "UA",
          "AL",
          "BA",
          "HR",
          "ME",
          "MK",
          "RS",
          "SI",
          "KR",
          "BD",
          "PK",
          "LK",
          "GH",
          "KE",
          "NG",
          "TZ",
          "UG",
          "AG",
          "AM",
          "BS",
          "BB",
          "BZ",
          "BT",
          "BW",
          "BF",
          "CV",
          "CW",
          "DM",
          "FJ",
          "GM",
          "GE",
          "GD",
          "GW",
          "GY",
          "HT",
          "JM",
          "KI",
          "LS",
          "LR",
          "MW",
          "MV",
          "ML",
          "MH",
          "FM",
          "NA",
          "NR",
          "NE",
          "PW",
          "PG",
          "WS",
          "SM",
          "ST",
          "SN",
          "SC",
          "SL",
          "SB",
          "KN",
          "LC",
          "VC",
          "SR",
          "TL",
          "TO",
          "TT",
          "TV",
          "VU",
          "AZ",
          "BN",
          "BI",
          "KH",
          "CM",
          "TD",
          "KM",
          "GQ",
          "SZ",
          "GA",
          "GN",
          "KG",
          "LA",
          "MO",
          "MR",
          "MN",
          "NP",
          "RW",
          "TG",
          "UZ",
          "ZW",
          "BJ",
          "MG",
          "MU",
          "MZ",
          "AO",
          "CI",
          "DJ",
          "ZM",
          "CD",
          "CG",
          "IQ",
          "LY",
          "TJ",
          "VE",
          "ET",
          "XK"
        ],
        "external_urls": {
          "spotify": "https://open.spotify.com/album/0DFYbYCcHCEJPcN1hODG6K"
        },
        "href": "https://api.spotify.com/v1/albums/0DFYbYCcHCEJPcN1hODG6K",
        "id": "0DFYbYCcHCEJPcN1hODG6K",
        "images": [
          {
            "height": 640,
            "url": "https://i.scdn.co/image/ab67616d0000b2736462162d227ec2be2ebee12d",
            "width": 640
          },
          {
            "height": 300,
            "url": "https://i.scdn.co/image/ab67616d00001e026462162d227ec2be2ebee12d",
            "width": 300
          },
          {
            "height": 64,
            "url": "https://i.scdn.co/image/ab67616d000048516462162d227ec2be2ebee12d",
            "width": 64
          }
        ],
        "name": "Plastic Ono Band",
        "release_date": "1970-12-11",
        "release_date_precision": "day",
        "total_tracks": 11,
        "type": "album",
        "uri": "spotify:album:0DFYbYCcHCEJPcN1hODG6K"
      },
      {
        "album_type": "album",
        "artists": [
          {
            "external_urls": {
              "spotify": "https://open.spotify.com/artist/4gHs8pWsgZpndQZKs6QVRH"
            },
            "href": "https://api.spotify.com/v1/artists/4gHs8pWsgZpndQZKs6QVRH",
            "id": "4gHs8pWsgZpndQZKs6QVRH",
            "name": "glass beach",
            "type": "artist",
            "uri": "spotify:artist:4gHs8pWsgZpndQZKs6QVRH"
          }
        ],
        "available_markets": [
          "AR",
          "AU",
          "AT",
          "BE",
          "BO",
          "BR",
          "BG",
          "CA",
          "CL",
          "CO",
          "CR",
          "CY",
          "CZ",
          "DK",
          "DO",
          "DE",
          "EC",
          "EE",
          "SV",
          "FI",
          "FR",
          "GR",
          "GT",
          "HN",
          "HK",
          "HU",
          "IS",
          "IE",
          "IT",
          "LV",
          "LT",
          "LU",
          "MY",
          "MT",
          "MX",
          "NL",
          "NZ",
          "NI",
          "NO",
          "PA",
          "PY",
          "PE",
          "PH",
          "PL",
          "PT",
          "SG",
          "SK",
          "ES",
          "SE",
          "CH",
          "TW",
          "TR",
          "UY",
          "US",
          "GB",
          "AD",
          "LI",
          "MC",
          "ID",
          "JP",
          "TH",
          "VN",
          "RO",
          "IL",
          "ZA",
          "SA",
          "AE",
          "BH",
          "QA",
          "OM",
          "KW",
          "EG",
          "MA",
          "DZ",
          "TN",
          "LB",
          "JO",
          "PS",
          "IN",
          "BY",
          "KZ",
          "MD",
          "UA",
          "AL",
          "BA",
          "HR",
          "ME",
          "MK",
          "RS",
          "SI",
          "KR",
          "BD",
          "PK",
          "LK",
          "GH",
          "KE",
          "NG",
          "TZ",
          "UG",
          "AG",
          "AM",
          "BS",
          "BB",
          "BZ",
          "BT",
          "BW",
          "BF",
          "CV",
          "CW",
          "DM",
          "FJ",
          "GM",
          "GE",
          "GD",
          "GW",
          "GY",
          "HT",
          "JM",
          "KI",
          "LS",
          "LR",
          "MW",
          "MV",
          "ML",
          "MH",
          "FM",
          "NA",
          "NR",
          "NE",
          "PW",
          "PG",
          "PR",
          "WS",
          "SM",
          "ST",
          "SN",
          "SC",
          "SL",
          "SB",
          "KN",
          "LC",
          "VC",
          "SR",
          "TL",
          "TO",
          "TT",
          "TV",
          "VU",
          "AZ",
          "BN",
          "BI",
          "KH",
          "CM",
          "TD",
          "KM",
          "GQ",
          "SZ",
          "GA",
          "GN",
          "KG",
          "LA",
          "MO",
          "MR",
          "MN",
          "NP",
          "RW",
          "TG",
          "UZ",
          "ZW",
          "BJ",
          "MG",
          "MU",
          "MZ",
          "AO",
          "CI",
          "DJ",
          "ZM",
          "CD",
          "CG",
          "IQ",
          "LY",
          "TJ",
          "VE",
          "ET",
          "XK"
        ],
        "external_urls": {
          "spotify": "https://open.spotify.com/album/4LKhRqqNlRlWwt4d9GG3QW"
        },
        "href": "https://api.spotify.com/v1/albums/4LKhRqqNlRlWwt4d9GG3QW",
        "id": "4LKhRqqNlRlWwt4d9GG3QW",
        "images": [
          {
            "height": 640,
            "url": "https://i.scdn.co/image/ab67616d0000b27337295d61bcd9fc7fa2fe33c9",
            "width": 640
          },
          {
            "height": 300,
            "url": "https://i.scdn.co/image/ab67616d00001e0237295d61bcd9fc7fa2fe33c9",
            "width": 300
          },
          {
            "height": 64,
            "url": "https://i.scdn.co/image/ab67616d0000485137295d61bcd9fc7fa2fe33c9",
            "width": 64
          }
        ],
        "name": "plastic death",
        "release_date": "2024-01-19",
        "release_date_precision": "day",
        "total_tracks": 13,
        "type": "album",
        "uri": "spotify:album:4LKhRqqNlRlWwt4d9GG3QW"
      }
    ],
    "limit": 9,
    "next": "https://api.spotify.com/v1/search?query=plastic&type=album&offset=20&limit=20",
    "offset": 0,
    "previous": null,
    "total": 910
  }
}
